{
  "date_maj": "2022-03-03",
  "nb_candidat": 60,
  "nb_parrainage_exp": 12751,
  "nb_parrainage_possible": 47000,
  "nb_candidat_sup_500": 11,
  "date_fin": "2022-03-04",
  "nb_candidat_2017": 61,
  "nb_parrainage_valid_2017": 14296,
  "nb_candidat_sup_500_2017": 11
}